{
  "photos": {
    "page": 1,
    "pages": 2076,
    "perpage": 100,
    "total": "207551",
    "photo": [{
      "id": "45007225125",
      "owner": "122378704@N05",
      "secret": "949db070a4",
      "server": "4905",
      "farm": 5,
      "title": "Christmas Jumper!!!!",
      "ispublic": 1,
      "isfriend": 0,
      "isfamily": 0
    }, {
      "id": "32047596788",
      "owner": "153237179@N02",
      "secret": "10d5ddd188",
      "server": "4826",
      "farm": 5,
      "title": "courtesy share Found little tabby kitten\/cat near #okotoks now safe at SAVE - Southern Alberta Veterinary Emergency YYC Pet Recovery shared SAVE - Southern Alberta Veterinary Emergency's post. This young fella with a loud meow was brought in today after t",
      "ispublic": 1,
      "isfriend": 0,
      "isfamily": 0
    }, {
      "id": "30979721417",
      "owner": "142290758@N05",
      "secret": "a9af1ecd5e",
      "server": "4861",
      "farm": 5,
      "title": "kitten moo and yanna unicorn power 2",
      "ispublic": 1,
      "isfriend": 0,
      "isfamily": 0
    }, {
      "id": "30979720307",
      "owner": "142290758@N05",
      "secret": "b3eeb53cb6",
      "server": "4916",
      "farm": 5,
      "title": "kitten moo and yanna unicorn power",
      "ispublic": 1,
      "isfriend": 0,
      "isfamily": 0
    }, {
      "id": "32047211668",
      "owner": "89792506@N05",
      "secret": "121ea7862b",
      "server": "4816",
      "farm": 5,
      "title": "IMG_4786",
      "ispublic": 1,
      "isfriend": 0,
      "isfamily": 0
    }, {
      "id": "44097409360",
      "owner": "160206472@N07",
      "secret": "d3b0dc4ba8",
      "server": "4846",
      "farm": 5,
      "title": "agQlX1GvSrE",
      "ispublic": 1,
      "isfriend": 0,
      "isfamily": 0
    }, {
      "id": "45868383092",
      "owner": "149336539@N02",
      "secret": "5f95fd276e",
      "server": "4864",
      "farm": 5,
      "title": "2018-11-16 08.06.17 1",
      "ispublic": 1,
      "isfriend": 0,
      "isfamily": 0
    }, {
      "id": "30978943357",
      "owner": "19159227@N06",
      "secret": "16f73f8e02",
      "server": "4814",
      "farm": 5,
      "title": "Macy's Union Square SF - 111618 - 11",
      "ispublic": 1,
      "isfriend": 0,
      "isfamily": 0
    }, {
      "id": "30978943147",
      "owner": "19159227@N06",
      "secret": "6103aa0b19",
      "server": "4863",
      "farm": 5,
      "title": "Macy's Union Square SF - 111618 - 12",
      "ispublic": 1,
      "isfriend": 0,
      "isfamily": 0
    }, {
      "id": "45868162812",
      "owner": "19159227@N06",
      "secret": "16c411d873",
      "server": "4890",
      "farm": 5,
      "title": "Macy's Union Square SF - 111618 - 14",
      "ispublic": 1,
      "isfriend": 0,
      "isfamily": 0
    }, {
      "id": "32046452618",
      "owner": "134994644@N04",
      "secret": "c937418362",
      "server": "4819",
      "farm": 5,
      "title": "This Dog Adorably Watches Over The Homeless Kittens At An Arizona Shelter.",
      "ispublic": 1,
      "isfriend": 0,
      "isfamily": 0
    }, {
      "id": "30978774427",
      "owner": "144021346@N02",
      "secret": "d02aa85b73",
      "server": "4829",
      "farm": 5,
      "title": "",
      "ispublic": 1,
      "isfriend": 0,
      "isfamily": 0
    }, {
      "id": "30978509337",
      "owner": "158874852@N07",
      "secret": "738f292268",
      "server": "4866",
      "farm": 5,
      "title": "Donald John Trump How stars like JK Rowling and Keira Knightley end up looking uncannily like their make-up artists!",
      "ispublic": 1,
      "isfriend": 0,
      "isfamily": 0
    }, {
      "id": "45867504322",
      "owner": "143951179@N04",
      "secret": "757f5d6597",
      "server": "4905",
      "farm": 5,
      "title": "\u8c93\u5e97\u9577",
      "ispublic": 1,
      "isfriend": 0,
      "isfamily": 0
    }, {
      "id": "44100983890",
      "owner": "49998540@N03",
      "secret": "6b288af7f7",
      "server": "4814",
      "farm": 5,
      "title": "\u3046\u3048\u3080\u304d\u306d\u3053 #\u306d\u3053 #\u732b #cat #gatto #chat #kitten",
      "ispublic": 1,
      "isfriend": 0,
      "isfamily": 0
    }, {
      "id": "32045765388",
      "owner": "154605377@N08",
      "secret": "c7ca0841e1",
      "server": "4854",
      "farm": 5,
      "title": "~Blessed~",
      "ispublic": 1,
      "isfriend": 0,
      "isfamily": 0
    }, {
      "id": "45916646311",
      "owner": "139734378@N05",
      "secret": "39d0914b26",
      "server": "4804",
      "farm": 5,
      "title": "Five Great Reborn Babies Ashton Drake Ideas That You Can Share With Your Friends | reborn babies ashton drake",
      "ispublic": 1,
      "isfriend": 0,
      "isfamily": 0
    }, {
      "id": "45867205172",
      "owner": "160508572@N05",
      "secret": "557b9b412e",
      "server": "4893",
      "farm": 5,
      "title": "",
      "ispublic": 1,
      "isfriend": 0,
      "isfamily": 0
    }, {
      "id": "45192597264",
      "owner": "160508572@N05",
      "secret": "ee60dc1bab",
      "server": "4869",
      "farm": 5,
      "title": "",
      "ispublic": 1,
      "isfriend": 0,
      "isfamily": 0
    }, {
      "id": "32045171818",
      "owner": "142530928@N07",
      "secret": "dff96786a0",
      "server": "4914",
      "farm": 5,
      "title": "#cats #cat #dogs #pets #kittens #cute #kitty #pussy #kitten #catsofinstagram #mentalhealthmatters #socialmediaisnotreallife #firstworldproblems #dog #adopt #rescue #love #animals #foster #puppies #me #gameinsight #hot #rt #meme #jomo",
      "ispublic": 1,
      "isfriend": 0,
      "isfamily": 0
    }, {
      "id": "32043653008",
      "owner": "165852128@N03",
      "secret": "b0a5f9afb0",
      "server": "4910",
      "farm": 5,
      "title": "Foto 2875",
      "ispublic": 1,
      "isfriend": 0,
      "isfamily": 0
    }, {
      "id": "45866351632",
      "owner": "153314098@N08",
      "secret": "d72035b49a",
      "server": "4851",
      "farm": 5,
      "title": "Excited to share the latest addition to my #etsy shop: Organic Catnip Nepeta Cataria Dried Herb Bag Tube or Cat Kitten Toy Pillow Kicker Cushion - Denim Fresh Home grown Strong #Catmint #catnip #pets #toy #christmas #denim #cat #kitten #pillow #catniphigh",
      "ispublic": 1,
      "isfriend": 0,
      "isfamily": 0
    }, {
      "id": "45003372655",
      "owner": "17483452@N00",
      "secret": "485c76814a",
      "server": "4865",
      "farm": 5,
      "title": "Our New Kitten Sitting Up Tall & Responding to Her Name",
      "ispublic": 1,
      "isfriend": 0,
      "isfamily": 0
    }, {
      "id": "45191439934",
      "owner": "126466353@N04",
      "secret": "3d4d58cdc6",
      "server": "4851",
      "farm": 5,
      "title": "-Extra- Baby Kitten",
      "ispublic": 1,
      "isfriend": 0,
      "isfamily": 0
    }, {
      "id": "44099586890",
      "owner": "126466353@N04",
      "secret": "dc2bc24725",
      "server": "4915",
      "farm": 5,
      "title": "-Extra- Not Your Kitten",
      "ispublic": 1,
      "isfriend": 0,
      "isfamily": 0
    }, {
      "id": "45915178651",
      "owner": "33356083@N00",
      "secret": "715af0554f",
      "server": "4887",
      "farm": 5,
      "title": "IMG_1735en",
      "ispublic": 1,
      "isfriend": 0,
      "isfamily": 0
    }, {
      "id": "45915164161",
      "owner": "33356083@N00",
      "secret": "71e0797555",
      "server": "4903",
      "farm": 5,
      "title": "IMG_1730en",
      "ispublic": 1,
      "isfriend": 0,
      "isfamily": 0
    }, {
      "id": "30976634287",
      "owner": "33356083@N00",
      "secret": "26a9b8a332",
      "server": "4867",
      "farm": 5,
      "title": "IMG_1725en",
      "ispublic": 1,
      "isfriend": 0,
      "isfamily": 0
    }, {
      "id": "45915145061",
      "owner": "33356083@N00",
      "secret": "24fd418d02",
      "server": "4874",
      "farm": 5,
      "title": "IMG_1720en",
      "ispublic": 1,
      "isfriend": 0,
      "isfamily": 0
    }, {
      "id": "45915133741",
      "owner": "33356083@N00",
      "secret": "b88f76ef15",
      "server": "4834",
      "farm": 5,
      "title": "IMG_1702en",
      "ispublic": 1,
      "isfriend": 0,
      "isfamily": 0
    }, {
      "id": "44099396380",
      "owner": "33356083@N00",
      "secret": "1f0dc1fb23",
      "server": "4882",
      "farm": 5,
      "title": "IMG_1695en",
      "ispublic": 1,
      "isfriend": 0,
      "isfamily": 0
    }, {
      "id": "32044230898",
      "owner": "33356083@N00",
      "secret": "c44ce02c84",
      "server": "4890",
      "farm": 5,
      "title": "IMG_1689en",
      "ispublic": 1,
      "isfriend": 0,
      "isfamily": 0
    }, {
      "id": "45002951805",
      "owner": "33356083@N00",
      "secret": "dc8434a734",
      "server": "4837",
      "farm": 5,
      "title": "IMG_1684en",
      "ispublic": 1,
      "isfriend": 0,
      "isfamily": 0
    }, {
      "id": "44099383710",
      "owner": "33356083@N00",
      "secret": "92a69654e7",
      "server": "4815",
      "farm": 5,
      "title": "IMG_1677en",
      "ispublic": 1,
      "isfriend": 0,
      "isfamily": 0
    }, {
      "id": "32044208258",
      "owner": "33356083@N00",
      "secret": "9ee2088318",
      "server": "4829",
      "farm": 5,
      "title": "IMG_1661en",
      "ispublic": 1,
      "isfriend": 0,
      "isfamily": 0
    }, {
      "id": "45915089401",
      "owner": "33356083@N00",
      "secret": "c0227e1cf3",
      "server": "4852",
      "farm": 5,
      "title": "Hey, Why You Sleepin'?",
      "ispublic": 1,
      "isfriend": 0,
      "isfamily": 0
    }, {
      "id": "30976519327",
      "owner": "33356083@N00",
      "secret": "d0aede7ffc",
      "server": "4853",
      "farm": 5,
      "title": "Back Off, Old Man!",
      "ispublic": 1,
      "isfriend": 0,
      "isfamily": 0
    }, {
      "id": "45191153944",
      "owner": "33356083@N00",
      "secret": "0b3856525e",
      "server": "4911",
      "farm": 5,
      "title": "IMG_1635en",
      "ispublic": 1,
      "isfriend": 0,
      "isfamily": 0
    }, {
      "id": "45915020571",
      "owner": "33356083@N00",
      "secret": "d5f9461ba8",
      "server": "4805",
      "farm": 5,
      "title": "IMG_1627en",
      "ispublic": 1,
      "isfriend": 0,
      "isfamily": 0
    }, {
      "id": "45002846335",
      "owner": "33356083@N00",
      "secret": "71fb7e71ff",
      "server": "4865",
      "farm": 5,
      "title": "IMG_1625en",
      "ispublic": 1,
      "isfriend": 0,
      "isfamily": 0
    }, {
      "id": "30976486977",
      "owner": "33356083@N00",
      "secret": "3268e3c9bb",
      "server": "4871",
      "farm": 5,
      "title": "IMG_1624en",
      "ispublic": 1,
      "isfriend": 0,
      "isfamily": 0
    }, {
      "id": "45914998851",
      "owner": "33356083@N00",
      "secret": "95c06b3414",
      "server": "4807",
      "farm": 5,
      "title": "IMG_1620en",
      "ispublic": 1,
      "isfriend": 0,
      "isfamily": 0
    }, {
      "id": "30976472567",
      "owner": "33356083@N00",
      "secret": "efc75497b3",
      "server": "4885",
      "farm": 5,
      "title": "IMG_1603en",
      "ispublic": 1,
      "isfriend": 0,
      "isfamily": 0
    }, {
      "id": "30976463347",
      "owner": "33356083@N00",
      "secret": "35b370dce1",
      "server": "4888",
      "farm": 5,
      "title": "IMG_1601en",
      "ispublic": 1,
      "isfriend": 0,
      "isfamily": 0
    }, {
      "id": "45865684512",
      "owner": "33356083@N00",
      "secret": "d144c06267",
      "server": "4834",
      "farm": 5,
      "title": "IMG_1594en",
      "ispublic": 1,
      "isfriend": 0,
      "isfamily": 0
    }, {
      "id": "45865681142",
      "owner": "33356083@N00",
      "secret": "f30331cbd0",
      "server": "4827",
      "farm": 5,
      "title": "IMG_1584en",
      "ispublic": 1,
      "isfriend": 0,
      "isfamily": 0
    }, {
      "id": "45865678322",
      "owner": "33356083@N00",
      "secret": "1690e7c18f",
      "server": "4904",
      "farm": 5,
      "title": "Treats for Attention",
      "ispublic": 1,
      "isfriend": 0,
      "isfamily": 0
    }, {
      "id": "45002787885",
      "owner": "33356083@N00",
      "secret": "4d1b03d4fb",
      "server": "4804",
      "farm": 5,
      "title": "IMG_1572en",
      "ispublic": 1,
      "isfriend": 0,
      "isfamily": 0
    }, {
      "id": "45002776465",
      "owner": "33356083@N00",
      "secret": "bb9acc9b15",
      "server": "4877",
      "farm": 5,
      "title": "IMG_1569en",
      "ispublic": 1,
      "isfriend": 0,
      "isfamily": 0
    }, {
      "id": "45002768005",
      "owner": "33356083@N00",
      "secret": "e526120f1a",
      "server": "4886",
      "farm": 5,
      "title": "The Red Dot",
      "ispublic": 1,
      "isfriend": 0,
      "isfamily": 0
    }, {
      "id": "45002756525",
      "owner": "33356083@N00",
      "secret": "ae5a0c03b3",
      "server": "4883",
      "farm": 5,
      "title": "Food Lure",
      "ispublic": 1,
      "isfriend": 0,
      "isfamily": 0
    }, {
      "id": "32044062908",
      "owner": "33356083@N00",
      "secret": "2b0e0afd6c",
      "server": "4872",
      "farm": 5,
      "title": "IMG_1525en",
      "ispublic": 1,
      "isfriend": 0,
      "isfamily": 0
    }, {
      "id": "45914916751",
      "owner": "33356083@N00",
      "secret": "5281835687",
      "server": "4874",
      "farm": 5,
      "title": "IMG_1507en",
      "ispublic": 1,
      "isfriend": 0,
      "isfamily": 0
    }, {
      "id": "45002728665",
      "owner": "33356083@N00",
      "secret": "de07b576a0",
      "server": "4850",
      "farm": 5,
      "title": "I'm Out!",
      "ispublic": 1,
      "isfriend": 0,
      "isfamily": 0
    }, {
      "id": "45914906731",
      "owner": "33356083@N00",
      "secret": "14301f4361",
      "server": "4844",
      "farm": 5,
      "title": "IMG_1491en",
      "ispublic": 1,
      "isfriend": 0,
      "isfamily": 0
    }, {
      "id": "45914897871",
      "owner": "33356083@N00",
      "secret": "08ee949fcc",
      "server": "4875",
      "farm": 5,
      "title": "IMG_1414en",
      "ispublic": 1,
      "isfriend": 0,
      "isfamily": 0
    }, {
      "id": "45914889521",
      "owner": "33356083@N00",
      "secret": "484e8980d3",
      "server": "4886",
      "farm": 5,
      "title": "IMG_1742en",
      "ispublic": 1,
      "isfriend": 0,
      "isfamily": 0
    }, {
      "id": "44099172540",
      "owner": "33356083@N00",
      "secret": "6b77689cbe",
      "server": "4822",
      "farm": 5,
      "title": "IMG_1748en",
      "ispublic": 1,
      "isfriend": 0,
      "isfamily": 0
    }, {
      "id": "45865599652",
      "owner": "33356083@N00",
      "secret": "558ce61948",
      "server": "4828",
      "farm": 5,
      "title": "IMG_1758en",
      "ispublic": 1,
      "isfriend": 0,
      "isfamily": 0
    }, {
      "id": "32044008138",
      "owner": "33356083@N00",
      "secret": "5f87deb101",
      "server": "4852",
      "farm": 5,
      "title": "IMG_1769en",
      "ispublic": 1,
      "isfriend": 0,
      "isfamily": 0
    }, {
      "id": "45002677515",
      "owner": "33356083@N00",
      "secret": "2c5515fc49",
      "server": "4811",
      "farm": 5,
      "title": "IMG_1775en",
      "ispublic": 1,
      "isfriend": 0,
      "isfamily": 0
    }, {
      "id": "45914859481",
      "owner": "33356083@N00",
      "secret": "a1593944ef",
      "server": "4890",
      "farm": 5,
      "title": "IMG_1776en",
      "ispublic": 1,
      "isfriend": 0,
      "isfamily": 0
    }, {
      "id": "44099129880",
      "owner": "33356083@N00",
      "secret": "841f950b3d",
      "server": "4836",
      "farm": 5,
      "title": "IMG_1777en",
      "ispublic": 1,
      "isfriend": 0,
      "isfamily": 0
    }, {
      "id": "44099259970",
      "owner": "128938309@N03",
      "secret": "42cc8682c2",
      "server": "4913",
      "farm": 5,
      "title": "Cats and Kitten Rocks at Bandon Beach, Or",
      "ispublic": 1,
      "isfriend": 0,
      "isfamily": 0
    }, {
      "id": "44099244880",
      "owner": "154530640@N03",
      "secret": "db6f0aab35",
      "server": "4876",
      "farm": 5,
      "title": "misi",
      "ispublic": 1,
      "isfriend": 0,
      "isfamily": 0
    }, {
      "id": "32043871138",
      "owner": "38189072@N05",
      "secret": "02f2487d8a",
      "server": "4840",
      "farm": 5,
      "title": "DSC_8018_DxO",
      "ispublic": 1,
      "isfriend": 0,
      "isfamily": 0
    }, {
      "id": "45002545515",
      "owner": "38189072@N05",
      "secret": "2c16c11629",
      "server": "4884",
      "farm": 5,
      "title": "DSC_8000_DxO",
      "ispublic": 1,
      "isfriend": 0,
      "isfamily": 0
    }, {
      "id": "45914767491",
      "owner": "38189072@N05",
      "secret": "fa72a4edf1",
      "server": "4908",
      "farm": 5,
      "title": "DSC_7994_DxO",
      "ispublic": 1,
      "isfriend": 0,
      "isfamily": 0
    }, {
      "id": "45002541415",
      "owner": "38189072@N05",
      "secret": "0822a48c59",
      "server": "4825",
      "farm": 5,
      "title": "DSC_7992_DxO",
      "ispublic": 1,
      "isfriend": 0,
      "isfamily": 0
    }, {
      "id": "44099024580",
      "owner": "38189072@N05",
      "secret": "958ff78c01",
      "server": "4910",
      "farm": 5,
      "title": "DSC_7991_DxO",
      "ispublic": 1,
      "isfriend": 0,
      "isfamily": 0
    }, {
      "id": "44099015450",
      "owner": "38189072@N05",
      "secret": "f28a471384",
      "server": "4915",
      "farm": 5,
      "title": "DSC_7968_DxO",
      "ispublic": 1,
      "isfriend": 0,
      "isfamily": 0
    }, {
      "id": "45002531165",
      "owner": "38189072@N05",
      "secret": "2b2ef44e71",
      "server": "4862",
      "farm": 5,
      "title": "DSC_7963_DxO",
      "ispublic": 1,
      "isfriend": 0,
      "isfamily": 0
    }, {
      "id": "45914751541",
      "owner": "38189072@N05",
      "secret": "5a5e6a1da5",
      "server": "4820",
      "farm": 5,
      "title": "DSC_7947_DxO",
      "ispublic": 1,
      "isfriend": 0,
      "isfamily": 0
    }, {
      "id": "45865416732",
      "owner": "38189072@N05",
      "secret": "687373d73e",
      "server": "4834",
      "farm": 5,
      "title": "DSC_7929_DxO",
      "ispublic": 1,
      "isfriend": 0,
      "isfamily": 0
    }, {
      "id": "30976196757",
      "owner": "38189072@N05",
      "secret": "9275883d8f",
      "server": "4814",
      "farm": 5,
      "title": "DSC_7928_DxO",
      "ispublic": 1,
      "isfriend": 0,
      "isfamily": 0
    }, {
      "id": "30976196367",
      "owner": "38189072@N05",
      "secret": "19598b8236",
      "server": "4835",
      "farm": 5,
      "title": "DSC_7927_DxO",
      "ispublic": 1,
      "isfriend": 0,
      "isfamily": 0
    }, {
      "id": "44098982940",
      "owner": "38189072@N05",
      "secret": "93d1ec1479",
      "server": "4901",
      "farm": 5,
      "title": "DSC_7858_DxO",
      "ispublic": 1,
      "isfriend": 0,
      "isfamily": 0
    }, {
      "id": "45914726451",
      "owner": "38189072@N05",
      "secret": "cc0ea19e53",
      "server": "4906",
      "farm": 5,
      "title": "DSC_7856_DxO",
      "ispublic": 1,
      "isfriend": 0,
      "isfamily": 0
    }, {
      "id": "44098961770",
      "owner": "38189072@N05",
      "secret": "3ac4df318a",
      "server": "4845",
      "farm": 5,
      "title": "DSC_7796_DxO",
      "ispublic": 1,
      "isfriend": 0,
      "isfamily": 0
    }, {
      "id": "45190816864",
      "owner": "38189072@N05",
      "secret": "9d3e1a3786",
      "server": "4811",
      "farm": 5,
      "title": "DSC_7752_DxO",
      "ispublic": 1,
      "isfriend": 0,
      "isfamily": 0
    }, {
      "id": "30976138367",
      "owner": "38189072@N05",
      "secret": "3f1177f370",
      "server": "4843",
      "farm": 5,
      "title": "DSC_7725_DxO",
      "ispublic": 1,
      "isfriend": 0,
      "isfamily": 0
    }, {
      "id": "45190802794",
      "owner": "38189072@N05",
      "secret": "392bc8dcaa",
      "server": "4888",
      "farm": 5,
      "title": "DSC_7697_DxO",
      "ispublic": 1,
      "isfriend": 0,
      "isfamily": 0
    }, {
      "id": "45914672671",
      "owner": "38189072@N05",
      "secret": "50914dd44e",
      "server": "4879",
      "farm": 5,
      "title": "DSC_7683_DxO",
      "ispublic": 1,
      "isfriend": 0,
      "isfamily": 0
    }, {
      "id": "45190797294",
      "owner": "38189072@N05",
      "secret": "1bbc8454ab",
      "server": "4862",
      "farm": 5,
      "title": "DSC_7678_DxO",
      "ispublic": 1,
      "isfriend": 0,
      "isfamily": 0
    }, {
      "id": "45865363512",
      "owner": "38189072@N05",
      "secret": "689f90224c",
      "server": "4841",
      "farm": 5,
      "title": "DSC_7664_DxO",
      "ispublic": 1,
      "isfriend": 0,
      "isfamily": 0
    }, {
      "id": "44098919330",
      "owner": "38189072@N05",
      "secret": "bd8f69bbea",
      "server": "4868",
      "farm": 5,
      "title": "DSC_7645_DxO",
      "ispublic": 1,
      "isfriend": 0,
      "isfamily": 0
    }, {
      "id": "44098919020",
      "owner": "38189072@N05",
      "secret": "6e32803de3",
      "server": "4910",
      "farm": 5,
      "title": "DSC_7644_DxO",
      "ispublic": 1,
      "isfriend": 0,
      "isfamily": 0
    }, {
      "id": "45865348582",
      "owner": "38189072@N05",
      "secret": "441a796395",
      "server": "4808",
      "farm": 5,
      "title": "DSC_7618_DxO",
      "ispublic": 1,
      "isfriend": 0,
      "isfamily": 0
    }, {
      "id": "45865345632",
      "owner": "38189072@N05",
      "secret": "9c2068e574",
      "server": "4871",
      "farm": 5,
      "title": "DSC_7609_DxO",
      "ispublic": 1,
      "isfriend": 0,
      "isfamily": 0
    }, {
      "id": "32043774868",
      "owner": "38189072@N05",
      "secret": "16e39f4c4d",
      "server": "4892",
      "farm": 5,
      "title": "DSC_7598_DxO",
      "ispublic": 1,
      "isfriend": 0,
      "isfamily": 0
    }, {
      "id": "30976094797",
      "owner": "38189072@N05",
      "secret": "520e7ba991",
      "server": "4902",
      "farm": 5,
      "title": "DSC_7569_DxO",
      "ispublic": 1,
      "isfriend": 0,
      "isfamily": 0
    }, {
      "id": "45865330282",
      "owner": "38189072@N05",
      "secret": "ff25ba2041",
      "server": "4836",
      "farm": 5,
      "title": "DSC_7567_DxO",
      "ispublic": 1,
      "isfriend": 0,
      "isfamily": 0
    }, {
      "id": "44098889390",
      "owner": "38189072@N05",
      "secret": "65f8666331",
      "server": "4906",
      "farm": 5,
      "title": "DSC_7565_DxO",
      "ispublic": 1,
      "isfriend": 0,
      "isfamily": 0
    }, {
      "id": "44098886430",
      "owner": "38189072@N05",
      "secret": "f56b30bf56",
      "server": "4838",
      "farm": 5,
      "title": "DSC_7559_DxO",
      "ispublic": 1,
      "isfriend": 0,
      "isfamily": 0
    }, {
      "id": "30976091307",
      "owner": "38189072@N05",
      "secret": "a7dbfb8505",
      "server": "4849",
      "farm": 5,
      "title": "DSC_7558_DxO",
      "ispublic": 1,
      "isfriend": 0,
      "isfamily": 0
    }, {
      "id": "44098885690",
      "owner": "38189072@N05",
      "secret": "0f8bbcdbb4",
      "server": "4818",
      "farm": 5,
      "title": "DSC_7557_DxO",
      "ispublic": 1,
      "isfriend": 0,
      "isfamily": 0
    }, {
      "id": "45190768694",
      "owner": "38189072@N05",
      "secret": "b12f0cb8ba",
      "server": "4828",
      "farm": 5,
      "title": "DSC_7556_DxO",
      "ispublic": 1,
      "isfriend": 0,
      "isfamily": 0
    }, {
      "id": "30976089627",
      "owner": "38189072@N05",
      "secret": "d6848de361",
      "server": "4902",
      "farm": 5,
      "title": "DSC_7552_DxO",
      "ispublic": 1,
      "isfriend": 0,
      "isfamily": 0
    }]
  },
  "stat": "ok"
}
